NEAR

BITMAP sgdk_logo "image/sgdk_logo.png" -1
TILESET font_default "image/font_default.png" BEST NONE
PALETTE font_pal_default "image/font_default.png"
BIN stop_xgm "sound/stop_xgm.bin" 2 2 0 NONE FALSE


